USDC/USDT,0x3416cF6C708Da44DB2624D63ea0AAef7113527C6
DAI/USDC,0x5777d92f208679DB4b9778590Fa3CAB3aC9e2168
FRAX/USDC,0xc63B0708E2F7e69CB8A1df0e1389A98C35A76D52
DAI/FRAX,0x97e7d56A0408570bA1a7852De36350f7713906ec
FRAX/USDT,0xc2A856c3afF2110c1171B8f942256d40E980C726
DAI/USDT,0x6f48ECa74B38d2936B02ab603FF4e36A6C0E3A77
